module github.com/viktordanov/abacus

go 1.18

require (
	github.com/alexflint/go-arg v1.4.3
	github.com/antlr/antlr4 v0.0.0-20220314183648-97c793e446ba
	github.com/antlr/antlr4/runtime/Go/antlr v0.0.0-20220314183648-97c793e446ba
	github.com/cockroachdb/apd v1.1.0
	github.com/peterh/liner v1.2.2
	github.com/thecodeteam/goodbye v0.0.0-20170927022442-a83968bda2d3
)

require (
	github.com/alexflint/go-scalar v1.1.0 // indirect
	github.com/lib/pq v1.10.4 // indirect
	github.com/mattn/go-runewidth v0.0.13 // indirect
	github.com/pkg/errors v0.9.1 // indirect
	github.com/rivo/uniseg v0.2.0 // indirect
	golang.org/x/sys v0.0.0-20211117180635-dee7805ff2e1 // indirect
)
